RP11-54O7.17	NOC2L	-0.0476190476190476
TNFRSF18	NOC2L	-0.0791187772129236
TNFRSF4	NOC2L	0.046893607723224
SDF4	NOC2L	-0.116521106202415
UBE2J2	NOC2L	0.0363696483726654
PUSL1	NOC2L	-0.0476190476190476
RP4-758J18.2	NOC2L	-0.0476190476190476
SSU72	NOC2L	-0.097682312831965
RP1-140A9.1	NOC2L	-0.0476190476190476
RER1	NOC2L	0.0525406937492734
PANK4	NOC2L	-0.0680413817439772
RP3-395M20.12	NOC2L	-0.0476190476190476
TNFRSF14	NOC2L	0.106390842270429
WRAP73	NOC2L	-0.0476190476190476
TP73-AS1	NOC2L	0.272165526975909
RPL22	NOC2L	0.11467669547164
TNFRSF25	NOC2L	-0.0776150525706333
THAP3	NOC2L	-0.0680413817439772
VAMP3	NOC2L	-0.0842151921066519
UTS2	NOC2L	-0.0476190476190476
TNFRSF9	NOC2L	-0.0476190476190476
PARK7	NOC2L	-0.100784649651159
RERE	NOC2L	-0.0476190476190476
TNFRSF18	RP11-54O7.17	-0.0339080473769672
TNFRSF4	RP11-54O7.17	-0.0301458906792154
SDF4	RP11-54O7.17	-0.0499376169438922
UBE2J2	RP11-54O7.17	0.327326835353989
RP4-758J18.2	RP11-54O7.17	-0.0204081632653061
SSU72	RP11-54O7.17	-0.0799218923170623
RP3-395M20.12	RP11-54O7.17	-0.0204081632653061
TNFRSF14	RP11-54O7.17	0.241007826367707
WRAP73	RP11-54O7.17	-0.0204081632653061
TP73-AS1	RP11-54O7.17	-0.0291605921759902
RPL22	RP11-54O7.17	-0.0104251541337854
TNFRSF25	RP11-54O7.17	-0.0332635939588428
THAP3	RP11-54O7.17	-0.0291605921759902
VAMP3	RP11-54O7.17	-0.0360922251885651
UTS2	RP11-54O7.17	-0.0204081632653061
TNFRSF9	RP11-54O7.17	-0.0204081632653061
NOC2L	HES4	-0.0644156626400831
RP11-54O7.17	HES4	-0.0276067125600356
ISG15	HES4	0.106351615416272
TNFRSF18	HES4	-0.0458683961529922
TNFRSF4	HES4	-0.0407792180035205
SDF4	HES4	0.575800878813235
UBE2J2	HES4	-0.0843398999968342
PUSL1	HES4	-0.0276067125600356
RP4-758J18.2	HES4	-0.0276067125600356
MRPL20	HES4	-0.101965778536015
SSU72	HES4	0.320905816373633
MIB2	HES4	-0.0607733661536943
NADK	HES4	0.578054441020058
RP1-140A9.1	HES4	-0.0276067125600356
RER1	HES4	0.385826570790919
PANK4	HES4	-0.0394463762278663
RP3-395M20.12	HES4	-0.0276067125600356
TNFRSF14	HES4	0.32601825557536
WRAP73	HES4	-0.0276067125600356
TP73-AS1	HES4	-0.0394463762278663
LRRC47	HES4	0.493654743755981
KCNAB2	HES4	0.10804153982879
RPL22	HES4	0.0530519137205704
ICMT	HES4	0.892617039441151
TNFRSF25	HES4	-0.04499662537964
THAP3	HES4	-0.0394463762278663
VAMP3	HES4	-0.0488229966352069
UTS2	HES4	-0.0276067125600356
TNFRSF9	HES4	-0.0276067125600356
PARK7	HES4	0.484125916488717
RERE	HES4	-0.0276067125600356
NOC2L	ISG15	-0.14777657608518
RP11-54O7.17	ISG15	0.0240227931567041
TNFRSF18	ISG15	0.0399137344157457
TNFRSF4	ISG15	-0.116850374142206
SDF4	ISG15	-0.0175583825323343
UBE2J2	ISG15	0.0733908453632423
PUSL1	ISG15	-0.0851717211919508
RP4-758J18.2	ISG15	-0.0851717211919508
MRPL20	ISG15	0.131940464753429
SSU72	ISG15	0.226437395933804
MIB2	ISG15	0.0729154494718069
NADK	ISG15	0.355939043551927
RP1-140A9.1	ISG15	0.133217307505359
RER1	ISG15	0.0909626010469564
PANK4	ISG15	-0.0436869043346527
RP3-395M20.12	ISG15	-0.0851717211919508
TNFRSF14	ISG15	0.0473985691196845
WRAP73	ISG15	0.0240227931567041
TP73-AS1	ISG15	-0.121699233503675
LRRC47	ISG15	0.171226484993337
KCNAB2	ISG15	-0.0673065687432064
RPL22	ISG15	-0.163037300220128
TNFRSF25	ISG15	0.395110932235788
THAP3	ISG15	0.0733315894188813
VAMP3	ISG15	0.0424847669532341
UTS2	ISG15	-0.0305744640176234
TNFRSF9	ISG15	0.351606336202669
PARK7	ISG15	0.00792369422816947
RERE	ISG15	-0.0851717211919508
TNFRSF4	TNFRSF18	-0.0500872261792139
UBE2J2	TNFRSF18	0.0582698226649129
WRAP73	TNFRSF18	-0.0339080473769672
TP73-AS1	TNFRSF18	-0.0484501583111509
TNFRSF25	TNFRSF18	-0.0552672724743476
VAMP3	TNFRSF18	-0.0599670272000677
UTS2	TNFRSF18	-0.0339080473769672
TNFRSF9	TNFRSF18	0.389942544835123
UBE2J2	TNFRSF4	0.38757578941295
WRAP73	TNFRSF4	-0.0301458906792154
TP73-AS1	TNFRSF4	-0.0430745291700507
VAMP3	TNFRSF4	-0.0533135814703014
UTS2	TNFRSF4	0.0535926945408274
TNFRSF9	TNFRSF4	-0.0301458906792154
TNFRSF18	SDF4	-0.0829710669800906
TNFRSF4	SDF4	0.277497969822542
UBE2J2	SDF4	-0.016345922119364
SSU72	SDF4	0.137028070309309
TNFRSF14	SDF4	0.13434060108458
WRAP73	SDF4	-0.0499376169438922
TP73-AS1	SDF4	-0.0713543136151414
TNFRSF25	SDF4	-0.0813941260513992
THAP3	SDF4	-0.0713543136151414
VAMP3	SDF4	-0.0883156260898439
UTS2	SDF4	-0.0499376169438922
TNFRSF9	SDF4	-0.0499376169438922
NOC2L	B3GALT6	-0.0680413817439772
RP11-54O7.17	B3GALT6	-0.0291605921759902
HES4	B3GALT6	-0.0394463762278663
ISG15	B3GALT6	-0.121699233503675
TNFRSF18	B3GALT6	0.254363331133542
TNFRSF4	B3GALT6	-0.0430745291700507
SDF4	B3GALT6	-0.0713543136151414
UBE2J2	B3GALT6	-0.0890870806374748
PUSL1	B3GALT6	0.699854212223765
CPSF3L	B3GALT6	-0.0601929265428846
CCNL2	B3GALT6	-0.0484501583111509
RP4-758J18.2	B3GALT6	-0.0291605921759902
MRPL20	B3GALT6	-0.107705054606916
SSU72	B3GALT6	-0.114197915681772
C1orf233	B3GALT6	-0.0291605921759902
MIB2	B3GALT6	0.203281233942684
CDK11B	B3GALT6	-0.0291605921759902
CDK11A	B3GALT6	-0.0601929265428846
NADK	B3GALT6	-0.0495073771488337
GNB1	B3GALT6	-0.0601929265428846
RP1-140A9.1	B3GALT6	-0.0291605921759902
C1orf86	B3GALT6	-0.0623199362435064
RER1	B3GALT6	0.072392563359876
PANK4	B3GALT6	-0.0416666666666667
RP3-395M20.12	B3GALT6	-0.0291605921759902
TNFRSF14	B3GALT6	0.111687118657491
WRAP73	B3GALT6	-0.0291605921759902
TP73-AS1	B3GALT6	-0.0416666666666667
LRRC47	B3GALT6	-0.0515710623129397
CEP104	B3GALT6	-0.0291605921759902
C1orf174	B3GALT6	-0.0515710623129397
KCNAB2	B3GALT6	-0.0641940738766369
RPL22	B3GALT6	-0.0148961797352906
ICMT	B3GALT6	-0.0291605921759902
TNFRSF25	B3GALT6	-0.0475293187893359
THAP3	B3GALT6	-0.0416666666666667
CAMTA1	B3GALT6	-0.0355418679901681
VAMP3	B3GALT6	-0.0515710623129397
UTS2	B3GALT6	-0.0291605921759902
TNFRSF9	B3GALT6	-0.0291605921759902
PARK7	B3GALT6	-0.0396756908920462
RERE	B3GALT6	0.699854212223765
ENO1	B3GALT6	-0.0718967606048941
WRAP73	UBE2J2	-0.062347968638855
VAMP3	UBE2J2	0.11945220005766
UTS2	UBE2J2	-0.062347968638855
NOC2L	ACAP3	-0.0476190476190476
RP11-54O7.17	ACAP3	-0.0204081632653061
HES4	ACAP3	-0.0276067125600356
ISG15	ACAP3	-0.0851717211919508
TNFRSF18	ACAP3	-0.0339080473769672
TNFRSF4	ACAP3	-0.0301458906792154
SDF4	ACAP3	-0.0499376169438922
B3GALT6	ACAP3	-0.0291605921759902
UBE2J2	ACAP3	-0.062347968638855
PUSL1	ACAP3	-0.0204081632653061
CPSF3L	ACAP3	-0.0421262731871135
AURKAIP1	ACAP3	-0.0827654928717639
CCNL2	ACAP3	-0.0339080473769672
RP4-758J18.2	ACAP3	-0.0204081632653061
MRPL20	ACAP3	-0.0753778361444409
ATAD3B	ACAP3	-0.0291605921759902
ATAD3A	ACAP3	-0.0204081632653061
SSU72	ACAP3	-0.0799218923170623
C1orf233	ACAP3	-0.0204081632653061
MIB2	ACAP3	-0.0449264930023679
CDK11B	ACAP3	-0.0204081632653061
CDK11A	ACAP3	-0.0421262731871135
NADK	ACAP3	-0.0346479464337619
GNB1	ACAP3	-0.0421262731871135
RP1-140A9.1	ACAP3	-0.0204081632653061
C1orf86	ACAP3	-0.0436148698855345
RER1	ACAP3	-0.0900697607130401
PANK4	ACAP3	-0.0291605921759902
RP3-395M20.12	ACAP3	-0.0204081632653061
TNFRSF14	ACAP3	-0.0846784254805456
WRAP73	ACAP3	-0.0204081632653061
TP73-AS1	ACAP3	-0.0291605921759902
LRRC47	ACAP3	-0.0360922251885651
CEP104	ACAP3	-0.0204081632653061
C1orf174	ACAP3	-0.0360922251885651
KCNAB2	ACAP3	-0.0449264930023679
RPL22	ACAP3	-0.0848905408036813
ICMT	ACAP3	-0.0204081632653061
ACOT7	ACAP3	-0.0204081632653061
TNFRSF25	ACAP3	-0.0332635939588428
THAP3	ACAP3	-0.0291605921759902
CAMTA1	ACAP3	-0.0248741260232202
VAMP3	ACAP3	-0.0360922251885651
UTS2	ACAP3	-0.0204081632653061
TNFRSF9	ACAP3	-0.0204081632653061
PARK7	ACAP3	-0.104898308820594
RERE	ACAP3	-0.0204081632653061
ENO1	ACAP3	-0.0986992226339815
RP11-54O7.17	PUSL1	-0.0204081632653061
TNFRSF18	PUSL1	-0.0339080473769672
TNFRSF4	PUSL1	-0.0301458906792154
SDF4	PUSL1	-0.0499376169438922
UBE2J2	PUSL1	-0.062347968638855
RP4-758J18.2	PUSL1	-0.0204081632653061
SSU72	PUSL1	-0.0799218923170623
RP1-140A9.1	PUSL1	-0.0204081632653061
RER1	PUSL1	-0.0900697607130401
RP3-395M20.12	PUSL1	-0.0204081632653061
TNFRSF14	PUSL1	-0.0846784254805456
WRAP73	PUSL1	-0.0204081632653061
TP73-AS1	PUSL1	-0.0291605921759902
RPL22	PUSL1	-0.159355927473577
TNFRSF25	PUSL1	-0.0332635939588428
THAP3	PUSL1	-0.0291605921759902
VAMP3	PUSL1	-0.0360922251885651
UTS2	PUSL1	-0.0204081632653061
TNFRSF9	PUSL1	-0.0204081632653061
RERE	PUSL1	1
NOC2L	CPSF3L	-0.0982946374365981
RP11-54O7.17	CPSF3L	-0.0421262731871135
HES4	CPSF3L	-0.0569854278400067
ISG15	CPSF3L	-0.119460907753366
TNFRSF18	CPSF3L	-0.0699925636851417
TNFRSF4	CPSF3L	-0.0622267672848529
SDF4	CPSF3L	0.0809918992071355
UBE2J2	CPSF3L	0.072392563359876
PUSL1	CPSF3L	-0.0421262731871135
RP4-758J18.2	CPSF3L	0.484452141651805
MRPL20	CPSF3L	0.400098802026948
SSU72	CPSF3L	-0.066775094142696
MIB2	CPSF3L	-0.0927367001602779
NADK	CPSF3L	-0.0715198539852152
GNB1	CPSF3L	-0.0869565217391305
RP1-140A9.1	CPSF3L	-0.0421262731871135
RER1	CPSF3L	-0.185920863939078
PANK4	CPSF3L	-0.0601929265428846
RP3-395M20.12	CPSF3L	-0.0421262731871135
TNFRSF14	CPSF3L	-0.00672277452913679
WRAP73	CPSF3L	0.484452141651805
TP73-AS1	CPSF3L	-0.0601929265428846
LRRC47	CPSF3L	-0.0745011159729912
KCNAB2	CPSF3L	-0.0927367001602779
RPL22	CPSF3L	0.170618668175882
ICMT	CPSF3L	-0.0421262731871135
TNFRSF25	CPSF3L	-0.0686622910684761
THAP3	CPSF3L	-0.0601929265428846
VAMP3	CPSF3L	-0.0745011159729912
UTS2	CPSF3L	-0.0421262731871135
TNFRSF9	CPSF3L	-0.0421262731871135
PARK7	CPSF3L	-0.136923234317779
RERE	CPSF3L	-0.0421262731871135
ENO1	CPSF3L	-0.0539295062785695
NOC2L	AURKAIP1	-0.0795197872689496
RP11-54O7.17	AURKAIP1	0.160662427339306
HES4	AURKAIP1	-0.111959275408423
ISG15	AURKAIP1	0.201622152096077
TNFRSF18	AURKAIP1	0.165826183918497
TNFRSF4	AURKAIP1	-0.102280312057354
SDF4	AURKAIP1	-0.202522462480927
B3GALT6	AURKAIP1	0.0556522580753121
UBE2J2	AURKAIP1	0.118989532867509
PUSL1	AURKAIP1	-0.0827654928717639
CPSF3L	AURKAIP1	0.0803969347745501
CCNL2	AURKAIP1	-0.0364008696406457
RP4-758J18.2	AURKAIP1	0.404090347550377
MRPL20	AURKAIP1	0.272300197058557
SSU72	AURKAIP1	-0.00635537187518469
C1orf233	AURKAIP1	0.160662427339306
MIB2	AURKAIP1	0.085741083990918
CDK11B	AURKAIP1	0.160662427339306
CDK11A	AURKAIP1	0.331637355945019
NADK	AURKAIP1	0.10745269585903
GNB1	AURKAIP1	-0.170843486395919
RP1-140A9.1	AURKAIP1	0.160662427339306
C1orf86	AURKAIP1	-0.00346824517506062
RER1	AURKAIP1	0.104749050089767
PANK4	AURKAIP1	-0.118261048410038
RP3-395M20.12	AURKAIP1	0.160662427339306
TNFRSF14	AURKAIP1	0.12275889693649
WRAP73	AURKAIP1	-0.0827654928717639
TP73-AS1	AURKAIP1	-0.118261048410038
LRRC47	AURKAIP1	-0.146372349521944
CEP104	AURKAIP1	-0.0827654928717639
C1orf174	AURKAIP1	-0.146372349521944
KCNAB2	AURKAIP1	-0.0928861743234946
RPL22	AURKAIP1	-0.0600437231078666
ICMT	AURKAIP1	-0.0827654928717639
TNFRSF25	AURKAIP1	-0.0687729618006054
THAP3	AURKAIP1	0.229565564560663
CAMTA1	AURKAIP1	-0.0823336343607352
VAMP3	AURKAIP1	-0.00287004606905772
UTS2	AURKAIP1	0.160662427339306
TNFRSF9	AURKAIP1	-0.0827654928717639
PARK7	AURKAIP1	0.0529930029321711
RERE	AURKAIP1	-0.0827654928717639
ENO1	AURKAIP1	0.107571182157607
NOC2L	CCNL2	-0.0791187772129236
RP11-54O7.17	CCNL2	-0.0339080473769672
HES4	CCNL2	0.336368238455276
ISG15	CCNL2	0.0172354762249811
TNFRSF18	CCNL2	-0.0563380281690141
TNFRSF4	CCNL2	0.367306325314235
SDF4	CCNL2	0.0651915526272141
UBE2J2	CCNL2	0.22013044117856
PUSL1	CCNL2	-0.0339080473769672
CPSF3L	CCNL2	-0.0699925636851417
RP4-758J18.2	CCNL2	-0.0339080473769672
MRPL20	CCNL2	0.0984027367076206
SSU72	CCNL2	0.420500939112483
MIB2	CCNL2	0.0808655390909802
CDK11B	CCNL2	-0.0339080473769672
CDK11A	CCNL2	0.148734197830926
NADK	CCNL2	0.230269465001362
GNB1	CCNL2	0.367460959346994
RP1-140A9.1	CCNL2	-0.0339080473769672
RER1	CCNL2	0.434921463261666
PANK4	CCNL2	-0.0484501583111509
RP3-395M20.12	CCNL2	-0.0339080473769672
TNFRSF14	CCNL2	0.129870205926522
WRAP73	CCNL2	-0.0339080473769672
TP73-AS1	CCNL2	-0.0484501583111509
LRRC47	CCNL2	-0.0599670272000677
CEP104	CCNL2	-0.0339080473769672
KCNAB2	CCNL2	0.236376191189019
RPL22	CCNL2	0.0445405741553533
ICMT	CCNL2	-0.0339080473769672
TNFRSF25	CCNL2	-0.0552672724743476
THAP3	CCNL2	0.254363331133542
VAMP3	CCNL2	0.189895586133548
UTS2	CCNL2	-0.0339080473769672
TNFRSF9	CCNL2	-0.0339080473769672
PARK7	CCNL2	0.274247206688213
RERE	CCNL2	-0.0339080473769672
ENO1	CCNL2	0.398716402834513
TNFRSF18	RP4-758J18.2	-0.0339080473769672
TNFRSF4	RP4-758J18.2	-0.0301458906792154
SDF4	RP4-758J18.2	-0.0499376169438922
UBE2J2	RP4-758J18.2	0.327326835353989
SSU72	RP4-758J18.2	-0.0799218923170623
TNFRSF14	RP4-758J18.2	0.241007826367707
WRAP73	RP4-758J18.2	-0.0204081632653061
TP73-AS1	RP4-758J18.2	-0.0291605921759902
RPL22	RP4-758J18.2	0.0640402325361105
TNFRSF25	RP4-758J18.2	-0.0332635939588428
THAP3	RP4-758J18.2	-0.0291605921759902
VAMP3	RP4-758J18.2	-0.0360922251885651
UTS2	RP4-758J18.2	-0.0204081632653061
TNFRSF9	RP4-758J18.2	-0.0204081632653061
NOC2L	MRPL20	-0.175881617670362
RP11-54O7.17	MRPL20	-0.0753778361444409
TNFRSF18	MRPL20	0.0984027367076206
TNFRSF4	MRPL20	0.175853249289348
SDF4	MRPL20	0.0978689271934547
UBE2J2	MRPL20	0.489351573126328
PUSL1	MRPL20	-0.0753778361444409
RP4-758J18.2	MRPL20	0.463035279172994
SSU72	MRPL20	-0.0441784882251473
NADK	MRPL20	0.0548454318095348
RP1-140A9.1	MRPL20	-0.0753778361444409
RER1	MRPL20	-0.109901205570656
PANK4	MRPL20	0.0846254000482913
RP3-395M20.12	MRPL20	-0.0753778361444409
TNFRSF14	MRPL20	-0.140914273077046
WRAP73	MRPL20	0.193828721514277
TP73-AS1	MRPL20	-0.107705054606916
RPL22	MRPL20	-0.0581510914456994
TNFRSF25	MRPL20	0.0965325027976875
THAP3	MRPL20	0.276955854703499
VAMP3	MRPL20	0.0253918358059513
UTS2	MRPL20	-0.0753778361444409
TNFRSF9	MRPL20	0.463035279172994
PARK7	MRPL20	-0.102558538898279
RERE	MRPL20	-0.0753778361444409
NOC2L	ATAD3B	0.272165526975909
RP11-54O7.17	ATAD3B	-0.0291605921759902
HES4	ATAD3B	-0.0394463762278663
ISG15	ATAD3B	-0.121699233503675
TNFRSF18	ATAD3B	-0.0484501583111509
TNFRSF4	ATAD3B	-0.0430745291700507
SDF4	ATAD3B	0.183482520724649
B3GALT6	ATAD3B	-0.0416666666666667
UBE2J2	ATAD3B	-0.0890870806374748
PUSL1	ATAD3B	-0.0291605921759902
CPSF3L	ATAD3B	-0.0601929265428846
AURKAIP1	ATAD3B	-0.118261048410038
CCNL2	ATAD3B	-0.0484501583111509
RP4-758J18.2	ATAD3B	-0.0291605921759902
MRPL20	ATAD3B	-0.107705054606916
SSU72	ATAD3B	0.157701883560542
C1orf233	ATAD3B	-0.0291605921759902
MIB2	ATAD3B	-0.0641940738766369
CDK11B	ATAD3B	-0.0291605921759902
CDK11A	ATAD3B	-0.0601929265428846
NADK	ATAD3B	-0.0495073771488337
GNB1	ATAD3B	0.316012864350144
RP1-140A9.1	ATAD3B	-0.0291605921759902
C1orf86	ATAD3B	-0.0623199362435064
RER1	ATAD3B	0.072392563359876
PANK4	ATAD3B	-0.0416666666666667
RP3-395M20.12	ATAD3B	-0.0291605921759902
TNFRSF14	ATAD3B	-0.120994378545615
WRAP73	ATAD3B	-0.0291605921759902
TP73-AS1	ATAD3B	0.479166666666667
LRRC47	ATAD3B	-0.0515710623129397
CEP104	ATAD3B	-0.0291605921759902
C1orf174	ATAD3B	0.378187790294891
KCNAB2	ATAD3B	0.203281233942684
RPL22	ATAD3B	0.197906387911718
ICMT	ATAD3B	-0.0291605921759902
TNFRSF25	ATAD3B	-0.0475293187893359
THAP3	ATAD3B	-0.0416666666666667
CAMTA1	ATAD3B	-0.0355418679901681
VAMP3	ATAD3B	-0.0515710623129397
UTS2	ATAD3B	-0.0291605921759902
TNFRSF9	ATAD3B	-0.0291605921759902
PARK7	ATAD3B	0.180744814063766
RERE	ATAD3B	-0.0291605921759902
ENO1	ATAD3B	0.135497741139993
NOC2L	ATAD3A	-0.0476190476190476
RP11-54O7.17	ATAD3A	-0.0204081632653061
HES4	ATAD3A	-0.0276067125600356
ISG15	ATAD3A	-0.0851717211919508
TNFRSF18	ATAD3A	-0.0339080473769672
TNFRSF4	ATAD3A	-0.0301458906792154
SDF4	ATAD3A	-0.0499376169438922
B3GALT6	ATAD3A	-0.0291605921759902
UBE2J2	ATAD3A	-0.062347968638855
PUSL1	ATAD3A	-0.0204081632653061
CPSF3L	ATAD3A	-0.0421262731871135
AURKAIP1	ATAD3A	-0.0827654928717639
CCNL2	ATAD3A	-0.0339080473769672
RP4-758J18.2	ATAD3A	-0.0204081632653061
MRPL20	ATAD3A	-0.0753778361444409
ATAD3B	ATAD3A	-0.0291605921759902
SSU72	ATAD3A	-0.0799218923170623
C1orf233	ATAD3A	-0.0204081632653061
MIB2	ATAD3A	-0.0449264930023679
CDK11B	ATAD3A	-0.0204081632653061
CDK11A	ATAD3A	-0.0421262731871135
NADK	ATAD3A	-0.0346479464337619
GNB1	ATAD3A	-0.0421262731871135
RP1-140A9.1	ATAD3A	-0.0204081632653061
C1orf86	ATAD3A	-0.0436148698855345
RER1	ATAD3A	0.19139824151521
PANK4	ATAD3A	-0.0291605921759902
RP3-395M20.12	ATAD3A	-0.0204081632653061
TNFRSF14	ATAD3A	-0.0846784254805456
WRAP73	ATAD3A	-0.0204081632653061
TP73-AS1	ATAD3A	-0.0291605921759902
LRRC47	ATAD3A	-0.0360922251885651
CEP104	ATAD3A	-0.0204081632653061
C1orf174	ATAD3A	-0.0360922251885651
KCNAB2	ATAD3A	-0.0449264930023679
RPL22	ATAD3A	0.361901779215694
ICMT	ATAD3A	-0.0204081632653061
TNFRSF25	ATAD3A	-0.0332635939588428
THAP3	ATAD3A	-0.0291605921759902
CAMTA1	ATAD3A	0.130589161621906
VAMP3	ATAD3A	-0.0360922251885651
UTS2	ATAD3A	-0.0204081632653061
TNFRSF9	ATAD3A	-0.0204081632653061
PARK7	ATAD3A	0.0493639100332206
RERE	ATAD3A	-0.0204081632653061
ENO1	ATAD3A	-0.00193527887517611
TNFRSF18	SSU72	0.104334819479037
TNFRSF4	SSU72	-0.102440573692918
UBE2J2	SSU72	-0.0261605800876463
TNFRSF14	SSU72	0.215003352397744
WRAP73	SSU72	-0.0799218923170623
TP73-AS1	SSU72	0.0217519839393851
TNFRSF25	SSU72	-0.130265979348399
THAP3	SSU72	0.0217519839393851
VAMP3	SSU72	0.307365779852057
UTS2	SSU72	-0.0799218923170623
TNFRSF9	SSU72	0.110368327485467
NOC2L	C1orf233	-0.0476190476190476
RP11-54O7.17	C1orf233	1
HES4	C1orf233	-0.0276067125600356
ISG15	C1orf233	0.0240227931567041
TNFRSF18	C1orf233	-0.0339080473769672
TNFRSF4	C1orf233	-0.0301458906792154
SDF4	C1orf233	-0.0499376169438922
UBE2J2	C1orf233	0.327326835353989
PUSL1	C1orf233	-0.0204081632653061
CPSF3L	C1orf233	-0.0421262731871135
CCNL2	C1orf233	-0.0339080473769672
RP4-758J18.2	C1orf233	-0.0204081632653061
MRPL20	C1orf233	-0.0753778361444409
SSU72	C1orf233	-0.0799218923170623
MIB2	C1orf233	-0.0449264930023679
CDK11B	C1orf233	-0.0204081632653061
CDK11A	C1orf233	0.484452141651805
NADK	C1orf233	-0.0346479464337619
GNB1	C1orf233	-0.0421262731871135
RP1-140A9.1	C1orf233	-0.0204081632653061
C1orf86	C1orf233	0.683299628206707
RER1	C1orf233	-0.0900697607130401
PANK4	C1orf233	-0.0291605921759902
RP3-395M20.12	C1orf233	-0.0204081632653061
TNFRSF14	C1orf233	0.241007826367707
WRAP73	C1orf233	-0.0204081632653061
TP73-AS1	C1orf233	-0.0291605921759902
LRRC47	C1orf233	-0.0360922251885651
CEP104	C1orf233	-0.0204081632653061
KCNAB2	C1orf233	-0.0449264930023679
RPL22	C1orf233	-0.0104251541337854
ICMT	C1orf233	-0.0204081632653061
TNFRSF25	C1orf233	-0.0332635939588428
THAP3	C1orf233	-0.0291605921759902
CAMTA1	C1orf233	-0.0248741260232202
VAMP3	C1orf233	-0.0360922251885651
UTS2	C1orf233	-0.0204081632653061
TNFRSF9	C1orf233	-0.0204081632653061
PARK7	C1orf233	0.357888347740849
RERE	C1orf233	-0.0204081632653061
ENO1	C1orf233	0.0948286648836293
NOC2L	MIB2	-0.104828483672192
RP11-54O7.17	MIB2	-0.0449264930023679
TNFRSF18	MIB2	0.702908147483136
TNFRSF4	MIB2	-0.0663631081858461
SDF4	MIB2	-0.109932577911051
UBE2J2	MIB2	0.148690428533295
PUSL1	MIB2	0.329460948684031
RP4-758J18.2	MIB2	-0.0449264930023679
MRPL20	MIB2	0.130378780380959
SSU72	MIB2	0.103329786333655
NADK	MIB2	0.177972492663322
RP1-140A9.1	MIB2	-0.0449264930023679
RER1	MIB2	0.214802689016032
PANK4	MIB2	-0.0641940738766369
RP3-395M20.12	MIB2	0.703848390370431
TNFRSF14	MIB2	-0.18641092980036
WRAP73	MIB2	-0.0449264930023679
TP73-AS1	MIB2	-0.0641940738766369
RPL22	MIB2	-0.104913897589786
TNFRSF25	MIB2	-0.0732264144400525
THAP3	MIB2	0.203281233942684
VAMP3	MIB2	0.141250414251243
UTS2	MIB2	-0.0449264930023679
TNFRSF9	MIB2	0.329460948684031
PARK7	MIB2	-0.117725422289771
RERE	MIB2	0.329460948684031
NOC2L	CDK11B	-0.0476190476190476
RP11-54O7.17	CDK11B	-0.0204081632653061
HES4	CDK11B	-0.0276067125600356
ISG15	CDK11B	-0.0305744640176234
TNFRSF18	CDK11B	-0.0339080473769672
TNFRSF4	CDK11B	-0.0301458906792154
SDF4	CDK11B	-0.0499376169438922
UBE2J2	CDK11B	-0.062347968638855
PUSL1	CDK11B	-0.0204081632653061
CPSF3L	CDK11B	-0.0421262731871135
RP4-758J18.2	CDK11B	-0.0204081632653061
MRPL20	CDK11B	0.193828721514277
SSU72	CDK11B	-0.0799218923170623
MIB2	CDK11B	-0.0449264930023679
NADK	CDK11B	-0.0346479464337619
GNB1	CDK11B	-0.0421262731871135
RP1-140A9.1	CDK11B	-0.0204081632653061
RER1	CDK11B	-0.0900697607130401
PANK4	CDK11B	-0.0291605921759902
RP3-395M20.12	CDK11B	-0.0204081632653061
TNFRSF14	CDK11B	-0.0846784254805456
WRAP73	CDK11B	-0.0204081632653061
TP73-AS1	CDK11B	-0.0291605921759902
LRRC47	CDK11B	-0.0360922251885651
CEP104	CDK11B	-0.0204081632653061
KCNAB2	CDK11B	-0.0449264930023679
RPL22	CDK11B	-0.0848905408036813
ICMT	CDK11B	-0.0204081632653061
TNFRSF25	CDK11B	-0.0332635939588428
THAP3	CDK11B	-0.0291605921759902
VAMP3	CDK11B	-0.0360922251885651
UTS2	CDK11B	-0.0204081632653061
TNFRSF9	CDK11B	-0.0204081632653061
PARK7	CDK11B	-0.104898308820594
RERE	CDK11B	-0.0204081632653061
ENO1	CDK11B	-0.0986992226339815
NOC2L	CDK11A	-0.0982946374365981
RP11-54O7.17	CDK11A	0.484452141651805
HES4	CDK11A	-0.0569854278400067
ISG15	CDK11A	0.162286516193252
TNFRSF18	CDK11A	-0.0699925636851417
TNFRSF4	CDK11A	-0.0622267672848529
SDF4	CDK11A	-0.1030805989909
UBE2J2	CDK11A	0.273483017137309
PUSL1	CDK11A	-0.0421262731871135
CPSF3L	CDK11A	-0.0869565217391305
RP4-758J18.2	CDK11A	-0.0421262731871135
MRPL20	CDK11A	0.122252411730456
SSU72	CDK11A	-0.066775094142696
MIB2	CDK11A	0.100464758506968
CDK11B	CDK11A	0.484452141651805
NADK	CDK11A	0.286079415940861
GNB1	CDK11A	-0.0869565217391305
RP1-140A9.1	CDK11A	0.484452141651805
RER1	CDK11A	0.104580485965731
PANK4	CDK11A	-0.0601929265428846
RP3-395M20.12	CDK11A	-0.0421262731871135
TNFRSF14	CDK11A	0.161346588699283
WRAP73	CDK11A	-0.0421262731871135
TP73-AS1	CDK11A	-0.0601929265428846
LRRC47	CDK11A	-0.0745011159729912
CEP104	CDK11A	-0.0421262731871135
KCNAB2	CDK11A	-0.0927367001602779
RPL22	CDK11A	-0.175229983531986
ICMT	CDK11A	-0.0421262731871135
TNFRSF25	CDK11A	-0.0686622910684761
THAP3	CDK11A	0.316012864350144
VAMP3	CDK11A	0.235920200581139
UTS2	CDK11A	-0.0421262731871135
TNFRSF9	CDK11A	-0.0421262731871135
PARK7	CDK11A	0.0222898288424292
RERE	CDK11A	-0.0421262731871135
ENO1	CDK11A	0.0958746778285681
NOC2L	NADK	-0.0808452083454443
RP11-54O7.17	NADK	-0.0346479464337619
TNFRSF18	NADK	-0.0575673662503404
TNFRSF4	NADK	-0.0511801670671234
SDF4	NADK	0.399684487564292
UBE2J2	NADK	0.158776837207489
PUSL1	NADK	-0.0346479464337619
RP4-758J18.2	NADK	-0.0346479464337619
SSU72	NADK	0.316603799751018
RP1-140A9.1	NADK	-0.0346479464337619
RER1	NADK	0.324946244957226
PANK4	NADK	-0.0495073771488337
RP3-395M20.12	NADK	-0.0346479464337619
TNFRSF14	NADK	0.18799743440546
WRAP73	NADK	-0.0346479464337619
TP73-AS1	NADK	-0.0495073771488337
RPL22	NADK	-0.0682687243963195
TNFRSF25	NADK	-0.0564732458623392
THAP3	NADK	0.445566394339504
VAMP3	NADK	0.347228132337408
UTS2	NADK	-0.0346479464337619
TNFRSF9	NADK	-0.0346479464337619
PARK7	NADK	0.136187264555893
RERE	NADK	-0.0346479464337619
NOC2L	GNB1	-0.0982946374365981
RP11-54O7.17	GNB1	-0.0421262731871135
HES4	GNB1	0.180453854826688
ISG15	GNB1	-0.119460907753366
TNFRSF18	GNB1	-0.0699925636851417
TNFRSF4	GNB1	-0.0190137344481495
SDF4	GNB1	0.265064397405171
UBE2J2	GNB1	0.072392563359876
PUSL1	GNB1	-0.0421262731871135
RP4-758J18.2	GNB1	-0.0421262731871135
MRPL20	GNB1	-0.155593978566035
SSU72	GNB1	0.326019577284928
MIB2	GNB1	-0.0927367001602779
NADK	GNB1	-0.0715198539852152
RP1-140A9.1	GNB1	-0.0421262731871135
RER1	GNB1	0.104580485965731
PANK4	GNB1	-0.0601929265428846
RP3-395M20.12	GNB1	-0.0421262731871135
TNFRSF14	GNB1	0.161346588699283
WRAP73	GNB1	-0.0421262731871135
TP73-AS1	GNB1	-0.0601929265428846
LRRC47	GNB1	-0.0745011159729912
KCNAB2	GNB1	0.293666217174214
RPL22	GNB1	0.132191040208341
ICMT	GNB1	-0.0421262731871135
TNFRSF25	GNB1	-0.0686622910684761
THAP3	GNB1	-0.0601929265428846
VAMP3	GNB1	-0.0745011159729912
UTS2	GNB1	-0.0421262731871135
TNFRSF9	GNB1	-0.0421262731871135
PARK7	GNB1	0.261109423582742
RERE	GNB1	-0.0421262731871135
RP11-54O7.17	RP1-140A9.1	-0.0204081632653061
TNFRSF18	RP1-140A9.1	-0.0339080473769672
TNFRSF4	RP1-140A9.1	-0.0301458906792154
SDF4	RP1-140A9.1	-0.0499376169438922
UBE2J2	RP1-140A9.1	-0.062347968638855
RP4-758J18.2	RP1-140A9.1	-0.0204081632653061
SSU72	RP1-140A9.1	-0.0799218923170623
RP3-395M20.12	RP1-140A9.1	-0.0204081632653061
TNFRSF14	RP1-140A9.1	0.241007826367707
WRAP73	RP1-140A9.1	-0.0204081632653061
TP73-AS1	RP1-140A9.1	-0.0291605921759902
RPL22	RP1-140A9.1	-0.159355927473577
TNFRSF25	RP1-140A9.1	-0.0332635939588428
THAP3	RP1-140A9.1	-0.0291605921759902
VAMP3	RP1-140A9.1	-0.0360922251885651
UTS2	RP1-140A9.1	-0.0204081632653061
TNFRSF9	RP1-140A9.1	-0.0204081632653061
NOC2L	C1orf86	0.124383147451339
RP11-54O7.17	C1orf86	0.683299628206707
HES4	C1orf86	-0.0589990956373918
ISG15	C1orf86	-0.0523769665474255
TNFRSF18	C1orf86	-0.0724658586465292
TNFRSF4	C1orf86	0.0349966471437781
SDF4	C1orf86	-0.106723110604675
UBE2J2	C1orf86	0.236881117245762
PUSL1	C1orf86	-0.0436148698855345
CPSF3L	C1orf86	0.160052025363739
CCNL2	C1orf86	-0.0724658586465292
RP4-758J18.2	C1orf86	-0.0436148698855345
MRPL20	C1orf86	-0.0332412334364507
SSU72	C1orf86	-0.170803363786304
MIB2	C1orf86	-0.0960136941888709
CDK11B	C1orf86	-0.0436148698855345
CDK11A	C1orf86	0.28509267017916
NADK	C1orf86	-0.0740471180999651
GNB1	C1orf86	0.0350113805483179
RP1-140A9.1	C1orf86	-0.0436148698855345
RER1	C1orf86	-0.0588165917203037
PANK4	C1orf86	-0.0623199362435064
RP3-395M20.12	C1orf86	-0.0436148698855345
TNFRSF14	C1orf86	0.205716541590248
WRAP73	C1orf86	0.440994795509293
TP73-AS1	C1orf86	-0.0623199362435064
LRRC47	C1orf86	-0.0771337275684551
CEP104	C1orf86	-0.0436148698855345
KCNAB2	C1orf86	0.0817894431979271
RPL22	C1orf86	-0.00459743871538156
ICMT	C1orf86	-0.0436148698855345
TNFRSF25	C1orf86	-0.0710885787995689
THAP3	C1orf86	-0.0623199362435064
CAMTA1	C1orf86	-0.0531592067309376
VAMP3	C1orf86	-0.0771337275684551
UTS2	C1orf86	-0.0436148698855345
TNFRSF9	C1orf86	-0.0436148698855345
PARK7	C1orf86	0.142127936652154
RERE	C1orf86	-0.0436148698855345
ENO1	C1orf86	0.110751279017416
RP11-54O7.17	RER1	-0.0900697607130401
TNFRSF18	RER1	0.201092719572598
TNFRSF4	RER1	-0.0406530742560438
SDF4	RER1	0.0747770755949007
UBE2J2	RER1	-0.0601929265428846
RP4-758J18.2	RER1	-0.0900697607130401
SSU72	RER1	0.27714401009415
RP1-140A9.1	RER1	0.19139824151521
RP3-395M20.12	RER1	0.19139824151521
TNFRSF14	RER1	0.255136663905112
WRAP73	RER1	-0.0900697607130401
TP73-AS1	RER1	0.072392563359876
RPL22	RER1	0.241555470308796
TNFRSF25	RER1	-0.146806153468106
THAP3	RER1	0.072392563359876
VAMP3	RER1	0.00663708692626773
UTS2	RER1	0.19139824151521
TNFRSF9	RER1	-0.0900697607130401
RERE	RER1	-0.0900697607130401
RP11-54O7.17	PANK4	-0.0291605921759902
TNFRSF18	PANK4	-0.0484501583111509
TNFRSF4	PANK4	-0.0430745291700507
SDF4	PANK4	0.183482520724649
UBE2J2	PANK4	-0.0890870806374748
PUSL1	PANK4	-0.0291605921759902
RP4-758J18.2	PANK4	-0.0291605921759902
SSU72	PANK4	-0.114197915681772
RP1-140A9.1	PANK4	-0.0291605921759902
RER1	PANK4	0.072392563359876
RP3-395M20.12	PANK4	-0.0291605921759902
TNFRSF14	PANK4	0.111687118657491
WRAP73	PANK4	-0.0291605921759902
TP73-AS1	PANK4	-0.0416666666666667
RPL22	PANK4	-0.174498105470547
TNFRSF25	PANK4	-0.0475293187893359
THAP3	PANK4	-0.0416666666666667
VAMP3	PANK4	-0.0515710623129397
UTS2	PANK4	-0.0291605921759902
TNFRSF9	PANK4	-0.0291605921759902
PARK7	PANK4	0.0705345615858598
RERE	PANK4	-0.0291605921759902
TNFRSF18	RP3-395M20.12	0.813793137047214
TNFRSF4	RP3-395M20.12	-0.0301458906792154
SDF4	RP3-395M20.12	-0.0499376169438922
UBE2J2	RP3-395M20.12	-0.062347968638855
RP4-758J18.2	RP3-395M20.12	-0.0204081632653061
SSU72	RP3-395M20.12	0.110368327485467
TNFRSF14	RP3-395M20.12	-0.0846784254805456
WRAP73	RP3-395M20.12	-0.0204081632653061
TP73-AS1	RP3-395M20.12	-0.0291605921759902
RPL22	RP3-395M20.12	0.0640402325361105
TNFRSF25	RP3-395M20.12	-0.0332635939588428
THAP3	RP3-395M20.12	-0.0291605921759902
VAMP3	RP3-395M20.12	-0.0360922251885651
UTS2	RP3-395M20.12	-0.0204081632653061
TNFRSF9	RP3-395M20.12	-0.0204081632653061
TNFRSF18	TNFRSF14	-0.00541125858027174
TNFRSF4	TNFRSF14	-0.0449014538049561
UBE2J2	TNFRSF14	0.114423612479082
WRAP73	TNFRSF14	-0.0846784254805456
TP73-AS1	TNFRSF14	0.111687118657491
TNFRSF25	TNFRSF14	-0.138018729350691
VAMP3	TNFRSF14	-0.149755407251792
UTS2	TNFRSF14	-0.0846784254805456
TNFRSF9	TNFRSF14	-0.0846784254805456
UBE2J2	TP73-AS1	-0.0890870806374748
WRAP73	TP73-AS1	-0.0291605921759902
VAMP3	TP73-AS1	-0.0515710623129397
UTS2	TP73-AS1	-0.0291605921759902
NOC2L	LRRC47	-0.0842151921066519
RP11-54O7.17	LRRC47	-0.0360922251885651
TNFRSF18	LRRC47	-0.0599670272000677
TNFRSF4	LRRC47	-0.0533135814703014
SDF4	LRRC47	0.542510274551898
UBE2J2	LRRC47	-0.110263569283994
PUSL1	LRRC47	-0.0360922251885651
RP4-758J18.2	LRRC47	-0.0360922251885651
MRPL20	LRRC47	0.0253918358059513
SSU72	LRRC47	-0.0291660958983704
MIB2	LRRC47	-0.0794533580163239
NADK	LRRC47	0.347228132337408
RP1-140A9.1	LRRC47	-0.0360922251885651
RER1	LRRC47	0.172564260082961
PANK4	LRRC47	0.378187790294891
RP3-395M20.12	LRRC47	-0.0360922251885651
TNFRSF14	LRRC47	0.0422387046094798
WRAP73	LRRC47	-0.0360922251885651
TP73-AS1	LRRC47	-0.0515710623129397
RPL22	LRRC47	-0.106232719332302
TNFRSF25	LRRC47	-0.0588272990634339
THAP3	LRRC47	-0.0515710623129397
VAMP3	LRRC47	-0.0638297872340425
UTS2	LRRC47	-0.0360922251885651
TNFRSF9	LRRC47	-0.0360922251885651
PARK7	LRRC47	0.269178128036259
RERE	LRRC47	-0.0360922251885651
NOC2L	CEP104	-0.0476190476190476
RP11-54O7.17	CEP104	-0.0204081632653061
HES4	CEP104	-0.0276067125600356
ISG15	CEP104	-0.0851717211919508
TNFRSF18	CEP104	-0.0339080473769672
TNFRSF4	CEP104	-0.0301458906792154
SDF4	CEP104	-0.0499376169438922
UBE2J2	CEP104	-0.062347968638855
PUSL1	CEP104	-0.0204081632653061
CPSF3L	CEP104	-0.0421262731871135
RP4-758J18.2	CEP104	-0.0204081632653061
MRPL20	CEP104	-0.0753778361444409
SSU72	CEP104	0.110368327485467
MIB2	CEP104	-0.0449264930023679
NADK	CEP104	-0.0346479464337619
GNB1	CEP104	-0.0421262731871135
RP1-140A9.1	CEP104	-0.0204081632653061
RER1	CEP104	-0.0900697607130401
PANK4	CEP104	-0.0291605921759902
RP3-395M20.12	CEP104	-0.0204081632653061
TNFRSF14	CEP104	0.241007826367707
WRAP73	CEP104	-0.0204081632653061
TP73-AS1	CEP104	0.699854212223765
LRRC47	CEP104	-0.0360922251885651
KCNAB2	CEP104	-0.0449264930023679
RPL22	CEP104	-0.0848905408036813
ICMT	CEP104	-0.0204081632653061
TNFRSF25	CEP104	-0.0332635939588428
THAP3	CEP104	-0.0291605921759902
VAMP3	CEP104	-0.0360922251885651
UTS2	CEP104	-0.0204081632653061
TNFRSF9	CEP104	-0.0204081632653061
PARK7	CEP104	0.0493639100332206
RERE	CEP104	-0.0204081632653061
ENO1	CEP104	-0.0986992226339815
NOC2L	C1orf174	-0.0842151921066519
RP11-54O7.17	C1orf174	-0.0360922251885651
HES4	C1orf174	-0.0488229966352069
ISG15	C1orf174	-0.150627810106921
TNFRSF18	C1orf174	-0.0599670272000677
TNFRSF4	C1orf174	-0.00394915418298529
SDF4	C1orf174	0.12195967412407
UBE2J2	C1orf174	0.11945220005766
PUSL1	C1orf174	-0.0360922251885651
CPSF3L	C1orf174	-0.0745011159729912
CCNL2	C1orf174	-0.0599670272000677
RP4-758J18.2	C1orf174	-0.0360922251885651
MRPL20	C1orf174	-0.133307137981244
SSU72	C1orf174	0.195188487935248
C1orf233	C1orf174	-0.0360922251885651
MIB2	C1orf174	-0.0794533580163239
CDK11B	C1orf174	-0.0360922251885651
CDK11A	C1orf174	-0.0745011159729912
NADK	C1orf174	-0.061275552765425
GNB1	C1orf174	0.546341517135269
RP1-140A9.1	C1orf174	-0.0360922251885651
C1orf86	C1orf174	0.0657065086694247
RER1	C1orf174	-0.159290086230426
PANK4	C1orf174	-0.0515710623129397
RP3-395M20.12	C1orf174	-0.0360922251885651
TNFRSF14	C1orf174	-0.149755407251792
WRAP73	C1orf174	-0.0360922251885651
TP73-AS1	C1orf174	-0.0515710623129397
LRRC47	C1orf174	-0.0638297872340425
CEP104	C1orf174	-0.0360922251885651
KCNAB2	C1orf174	0.582657958786375
RPL22	C1orf174	0.0254607343854277
ICMT	C1orf174	-0.0360922251885651
TNFRSF25	C1orf174	-0.0588272990634339
THAP3	C1orf174	-0.0515710623129397
CAMTA1	C1orf174	0.55171249854061
VAMP3	C1orf174	-0.0638297872340425
UTS2	C1orf174	-0.0360922251885651
TNFRSF9	C1orf174	-0.0360922251885651
PARK7	C1orf174	0.0873010144982462
RERE	C1orf174	-0.0360922251885651
ENO1	C1orf174	0.0536203812612045
NOC2L	KCNAB2	0.0698856557814612
RP11-54O7.17	KCNAB2	-0.0449264930023679
TNFRSF18	KCNAB2	-0.0746451130070586
TNFRSF4	KCNAB2	-0.00491578579154416
SDF4	KCNAB2	0.0209395386497239
UBE2J2	KCNAB2	-0.137252703261503
PUSL1	KCNAB2	-0.0449264930023679
RP4-758J18.2	KCNAB2	-0.0449264930023679
MRPL20	KCNAB2	-0.165936629575766
SSU72	KCNAB2	0.312782055928901
MIB2	KCNAB2	-0.0989010989010989
NADK	KCNAB2	-0.0762739254271382
RP1-140A9.1	KCNAB2	-0.0449264930023679
RER1	KCNAB2	0.214802689016032
PANK4	KCNAB2	-0.0641940738766369
RP3-395M20.12	KCNAB2	-0.0449264930023679
TNFRSF14	KCNAB2	0.0525774417385631
WRAP73	KCNAB2	-0.0449264930023679
TP73-AS1	KCNAB2	-0.0641940738766369
LRRC47	KCNAB2	-0.0794533580163239
RPL22	KCNAB2	0.140978049886276
TNFRSF25	KCNAB2	-0.0732264144400525
THAP3	KCNAB2	-0.0641940738766369
VAMP3	KCNAB2	-0.0794533580163239
UTS2	KCNAB2	-0.0449264930023679
TNFRSF9	KCNAB2	-0.0449264930023679
PARK7	KCNAB2	0.108669620575173
RERE	KCNAB2	-0.0449264930023679
TNFRSF18	RPL22	0.0754715284299043
TNFRSF4	RPL22	-0.0520649839150133
SDF4	RPL22	0.0265509750394146
UBE2J2	RPL22	-0.00341243271068954
SSU72	RPL22	0.167472807259904
TNFRSF14	RPL22	0.0280454206356241
WRAP73	RPL22	-0.0104251541337854
TP73-AS1	RPL22	-0.0680968216470428
TNFRSF25	RPL22	-0.0169921266091649
THAP3	RPL22	-0.121297463558795
VAMP3	RPL22	0.113256370197247
UTS2	RPL22	-0.0848905408036813
TNFRSF9	RPL22	-0.0848905408036813
NOC2L	ICMT	-0.0476190476190476
RP11-54O7.17	ICMT	-0.0204081632653061
ISG15	ICMT	0.133217307505359
TNFRSF18	ICMT	-0.0339080473769672
TNFRSF4	ICMT	-0.0301458906792154
SDF4	ICMT	0.663456910825997
UBE2J2	ICMT	-0.062347968638855
PUSL1	ICMT	-0.0204081632653061
RP4-758J18.2	ICMT	-0.0204081632653061
MRPL20	ICMT	-0.0753778361444409
SSU72	ICMT	0.110368327485467
MIB2	ICMT	-0.0449264930023679
NADK	ICMT	0.658310982241475
RP1-140A9.1	ICMT	-0.0204081632653061
RER1	ICMT	0.19139824151521
PANK4	ICMT	-0.0291605921759902
RP3-395M20.12	ICMT	-0.0204081632653061
TNFRSF14	ICMT	0.241007826367707
WRAP73	ICMT	-0.0204081632653061
TP73-AS1	ICMT	-0.0291605921759902
LRRC47	ICMT	0.56544486128752
KCNAB2	ICMT	-0.0449264930023679
RPL22	ICMT	-0.0104251541337854
TNFRSF25	ICMT	-0.0332635939588428
THAP3	ICMT	-0.0291605921759902
VAMP3	ICMT	-0.0360922251885651
UTS2	ICMT	-0.0204081632653061
TNFRSF9	ICMT	-0.0204081632653061
PARK7	ICMT	0.357888347740849
RERE	ICMT	-0.0204081632653061
NOC2L	ACOT7	-0.0476190476190476
RP11-54O7.17	ACOT7	-0.0204081632653061
HES4	ACOT7	-0.0276067125600356
ISG15	ACOT7	-0.0851717211919508
TNFRSF18	ACOT7	-0.0339080473769672
TNFRSF4	ACOT7	-0.0301458906792154
SDF4	ACOT7	-0.0499376169438922
B3GALT6	ACOT7	0.699854212223765
UBE2J2	ACOT7	-0.062347968638855
PUSL1	ACOT7	1
CPSF3L	ACOT7	-0.0421262731871135
AURKAIP1	ACOT7	-0.0827654928717639
CCNL2	ACOT7	-0.0339080473769672
RP4-758J18.2	ACOT7	-0.0204081632653061
MRPL20	ACOT7	-0.0753778361444409
ATAD3B	ACOT7	-0.0291605921759902
ATAD3A	ACOT7	-0.0204081632653061
SSU72	ACOT7	-0.0799218923170623
C1orf233	ACOT7	-0.0204081632653061
MIB2	ACOT7	0.329460948684031
CDK11B	ACOT7	-0.0204081632653061
CDK11A	ACOT7	-0.0421262731871135
NADK	ACOT7	-0.0346479464337619
GNB1	ACOT7	-0.0421262731871135
RP1-140A9.1	ACOT7	-0.0204081632653061
C1orf86	ACOT7	-0.0436148698855345
RER1	ACOT7	-0.0900697607130401
PANK4	ACOT7	-0.0291605921759902
RP3-395M20.12	ACOT7	-0.0204081632653061
TNFRSF14	ACOT7	-0.0846784254805456
WRAP73	ACOT7	-0.0204081632653061
TP73-AS1	ACOT7	-0.0291605921759902
LRRC47	ACOT7	-0.0360922251885651
CEP104	ACOT7	-0.0204081632653061
C1orf174	ACOT7	-0.0360922251885651
KCNAB2	ACOT7	-0.0449264930023679
RPL22	ACOT7	-0.159355927473577
ICMT	ACOT7	-0.0204081632653061
TNFRSF25	ACOT7	-0.0332635939588428
THAP3	ACOT7	-0.0291605921759902
CAMTA1	ACOT7	-0.0248741260232202
VAMP3	ACOT7	-0.0360922251885651
UTS2	ACOT7	-0.0204081632653061
TNFRSF9	ACOT7	-0.0204081632653061
PARK7	ACOT7	-0.104898308820594
RERE	ACOT7	1
ENO1	ACOT7	-0.00193527887517611
TNFRSF4	TNFRSF25	-0.0491352726869733
UBE2J2	TNFRSF25	-0.101621958135115
WRAP73	TNFRSF25	-0.0332635939588428
TP73-AS1	TNFRSF25	-0.0475293187893359
VAMP3	TNFRSF25	-0.0588272990634339
UTS2	TNFRSF25	-0.0332635939588428
TNFRSF9	TNFRSF25	-0.0332635939588428
TNFRSF18	THAP3	-0.0484501583111509
TNFRSF4	THAP3	-0.0430745291700507
UBE2J2	THAP3	0.189310046354634
TNFRSF14	THAP3	-0.120994378545615
WRAP73	THAP3	-0.0291605921759902
TP73-AS1	THAP3	-0.0416666666666667
TNFRSF25	THAP3	0.150509509499564
VAMP3	THAP3	0.378187790294891
UTS2	THAP3	-0.0291605921759902
TNFRSF9	THAP3	-0.0291605921759902
NOC2L	CAMTA1	-0.0580396273875137
RP11-54O7.17	CAMTA1	-0.0248741260232202
HES4	CAMTA1	-0.0336479495179519
ISG15	CAMTA1	-0.103810034200615
TNFRSF18	CAMTA1	0.0232471232657686
TNFRSF4	CAMTA1	-0.0367427815080141
SDF4	CAMTA1	-0.0608655742809219
UBE2J2	CAMTA1	-0.0759917102315182
PUSL1	CAMTA1	-0.0248741260232202
CPSF3L	CAMTA1	-0.0513448571790982
CCNL2	CAMTA1	-0.0413282191391442
RP4-758J18.2	CAMTA1	-0.0248741260232202
MRPL20	CAMTA1	-0.0918729319851087
SSU72	CAMTA1	0.105528988341761
MIB2	CAMTA1	0.00228157729947453
CDK11B	CAMTA1	-0.0248741260232202
CDK11A	CAMTA1	-0.0513448571790982
NADK	CAMTA1	-0.0422300319159196
GNB1	CAMTA1	-0.0513448571790982
RP1-140A9.1	CAMTA1	-0.0248741260232202
RER1	CAMTA1	-0.0454557491038499
PANK4	CAMTA1	-0.0355418679901681
RP3-395M20.12	CAMTA1	0.0528575177993429
TNFRSF14	CAMTA1	-0.103208789515697
WRAP73	CAMTA1	-0.0248741260232202
TP73-AS1	CAMTA1	-0.0355418679901681
LRRC47	CAMTA1	-0.0439903653321417
CEP104	CAMTA1	-0.0248741260232202
KCNAB2	CAMTA1	0.686754767141834
RPL22	CAMTA1	-0.0240516144399466
ICMT	CAMTA1	-0.0248741260232202
TNFRSF25	CAMTA1	-0.0405427385777566
THAP3	CAMTA1	-0.0355418679901681
VAMP3	CAMTA1	-0.0439903653321417
UTS2	CAMTA1	-0.0248741260232202
TNFRSF9	CAMTA1	-0.0248741260232202
PARK7	CAMTA1	-0.104350964439683
RERE	CAMTA1	-0.0248741260232202
ENO1	CAMTA1	-0.0908130361957707
WRAP73	VAMP3	-0.0360922251885651
WRAP73	UTS2	-0.0204081632653061
VAMP3	UTS2	-0.0360922251885651
UBE2J2	TNFRSF9	0.327326835353989
WRAP73	TNFRSF9	-0.0204081632653061
TP73-AS1	TNFRSF9	-0.0291605921759902
VAMP3	TNFRSF9	-0.0360922251885651
UTS2	TNFRSF9	-0.0204081632653061
RP11-54O7.17	PARK7	0.357888347740849
TNFRSF18	PARK7	-0.0461350441157742
TNFRSF4	PARK7	0.0222804488905303
SDF4	PARK7	0.390412751265777
UBE2J2	PARK7	0.0329895204225742
PUSL1	PARK7	-0.104898308820594
RP4-758J18.2	PARK7	0.0493639100332206
SSU72	PARK7	0.250852597403706
RP1-140A9.1	PARK7	-0.104898308820594
RER1	PARK7	0.217863582663059
RP3-395M20.12	PARK7	-0.104898308820594
TNFRSF14	PARK7	0.155586588498557
WRAP73	PARK7	-0.104898308820594
TP73-AS1	PARK7	-0.0396756908920462
RPL22	PARK7	0.160306114486333
TNFRSF25	PARK7	-0.0452582054542851
THAP3	PARK7	-0.149885943369952
VAMP3	PARK7	-0.00363754227076026
UTS2	PARK7	0.203626128887035
TNFRSF9	PARK7	0.0493639100332206
RERE	PARK7	-0.104898308820594
RP11-54O7.17	RERE	-0.0204081632653061
TNFRSF18	RERE	-0.0339080473769672
TNFRSF4	RERE	-0.0301458906792154
SDF4	RERE	-0.0499376169438922
UBE2J2	RERE	-0.062347968638855
RP4-758J18.2	RERE	-0.0204081632653061
SSU72	RERE	-0.0799218923170623
RP1-140A9.1	RERE	-0.0204081632653061
RP3-395M20.12	RERE	-0.0204081632653061
TNFRSF14	RERE	-0.0846784254805456
WRAP73	RERE	-0.0204081632653061
TP73-AS1	RERE	-0.0291605921759902
RPL22	RERE	-0.159355927473577
TNFRSF25	RERE	-0.0332635939588428
THAP3	RERE	-0.0291605921759902
VAMP3	RERE	-0.0360922251885651
UTS2	RERE	-0.0204081632653061
TNFRSF9	RERE	-0.0204081632653061
NOC2L	ENO1	0.0406408563786983
RP11-54O7.17	ENO1	0.0948286648836293
HES4	ENO1	0.65185901577968
ISG15	ENO1	0.162776984530464
TNFRSF18	ENO1	-0.00321545486156865
TNFRSF4	ENO1	0.0447862148491262
SDF4	ENO1	0.468816236683681
UBE2J2	ENO1	-0.0428647160256603
PUSL1	ENO1	-0.00193527887517611
RP4-758J18.2	ENO1	-0.00193527887517611
MRPL20	ENO1	-0.0582049764447822
SSU72	ENO1	0.425500333279469
MIB2	ENO1	0.0312423418950006
NADK	ENO1	0.358132416638773
GNB1	ENO1	0.345548318007131
RP1-140A9.1	ENO1	0.191592608642435
RER1	ENO1	0.578665971738077
PANK4	ENO1	-0.00276526002326516
RP3-395M20.12	ENO1	0.0948286648836293
TNFRSF14	ENO1	0.362582767171911
WRAP73	ENO1	-0.0986992226339815
TP73-AS1	ENO1	-0.141028261186523
LRRC47	ENO1	0.338835175203781
KCNAB2	ENO1	0.279760970605233
RPL22	ENO1	0.274408071272315
ICMT	ENO1	0.481884439918851
TNFRSF25	ENO1	-0.0820128973130538
THAP3	ENO1	-0.0718967606048941
VAMP3	ENO1	-0.117508495104342
UTS2	ENO1	0.0948286648836293
TNFRSF9	ENO1	-0.0986992226339815
PARK7	ENO1	0.502049442382263
RERE	ENO1	-0.00193527887517611
